[
  {
    "range": ">=0.4.0,<0.4.9",
    "version": "4.5.1"
  },
  {
    "range": "<1.0",
    "version": "4.5.1"
  },
  {
    "range": "<0.6.1",
    "version": "4.5.1"
  },
  {
    "range": ">=2.0.0a0,<2.15.1||>=3.0.0dev0,<3.0.0b9",
    "version": "4.5.1"
  },
  {
    "range": "<0.10.3",
    "version": "4.5.1"
  },
  {
    "range": "<2.4.18",
    "version": "4.5.1"
  },
  {
    "range": "<1.11.1 || >=1.12.0,<1.12.2 || >=1.13.0,<1.13.2 || >=1.14.0,<1.14.2 || >=1.15.0,<1.15.2 || >=1.16.0,<1.16.2",
    "version": "4.5.1"
  },
  {
    "range": "<0.2.2",
    "version": "4.5.1"
  },
  {
    "range": ">=0.0.0",
    "version": "4.5.1"
  },
  {
    "range": "<0.7.0",
    "version": "4.5.1"
  },
  {
    "range": "<0.8.0",
    "version": "4.5.1"
  },
  {
    "range": "<1.1.4",
    "version": "4.5.1"
  },
  {
    "range": "<0.15.1",
    "version": "4.5.1"
  },
  {
    "range": "<2.3.0",
    "version": "4.5.1"
  },
  {
    "range": ">=1.2.2,<=2.0.2",
    "version": "4.5.1"
  },
  {
    "range": "<2.10.1",
    "version": "4.5.1"
  },
  {
    "range": "<0.3",
    "version": "4.5.1"
  },
  {
    "range": ">=0.0.0alpha",
    "version": "4.5.1"
  },
  {
    "range": "<2.3.1",
    "version": "4.5.1"
  },
  {
    "range": ">=0",
    "version": "4.5.1"
  },
  {
    "range": "<1.1.2||==2.0.0rc1",
    "version": "4.5.1"
  },
  {
    "range": "<1.8.6||>=1.9.0alpha,<1.10.5||>=2.0.0alpha,<2.0.2",
    "version": "4.5.1"
  },
  {
    "range": "<0.2.0",
    "version": "4.5.1"
  },
  {
    "range": "<5.1.3",
    "version": "4.5.1"
  },
  {
    "range": "<11.0.0",
    "version": "4.5.1"
  },
  {
    "range": "<1.5.2",
    "version": "4.5.1"
  },
  {
    "range": "<1.5.3",
    "version": "4.5.1"
  },
  {
    "range": ">=1.9.0,<2.3",
    "version": "4.5.1"
  },
  {
    "range": ">=0.12,<3.2.2",
    "version": "4.5.1"
  },
  {
    "range": ">=3.0.0,<3.2.2",
    "version": "4.5.1"
  },
  {
    "range": "<1.1.6",
    "version": "4.5.1"
  },
  {
    "range": "<2.7.0",
    "version": "4.5.1"
  },
  {
    "range": "<2.2.3 || >=2.3.0, <2.3.2",
    "version": "4.5.1"
  },
  {
    "range": "<1.9.0",
    "version": "4.5.1"
  },
  {
    "range": "<1.10.2",
    "version": "4.5.1"
  },
  {
    "range": "<1.10.1",
    "version": "4.5.1"
  },
  {
    "range": "<2.8.0",
    "version": "4.5.1"
  },
  {
    "range": "<=0.7.0",
    "version": "4.5.1"
  },
  {
    "range": ">=0.0a",
    "version": "4.5.1"
  },
  {
    "range": "<=3.2.3",
    "version": "4.5.1"
  },
  {
    "range": "0.2.1",
    "version": "4.5.1"
  },
  {
    "range": ">=2.4.0,<2.4.5||>=3.0.0,<3.1.1",
    "version": "4.5.1"
  },
  {
    "range": "<0.3.2",
    "version": "4.5.1"
  },
  {
    "range": ">0.0.0a",
    "version": "4.5.1"
  },
  {
    "range": "<0.15.3",
    "version": "4.5.1"
  },
  {
    "range": ">0.0a",
    "version": "4.5.1"
  },
  {
    "range": "<19.2.1",
    "version": "4.5.1"
  },
  {
    "range": "<10.0.8 || >=11.0.0dev0, <11.0.7 || >=12.0.0dev0, <12.0.6 || >=13.0.0dev0, <13.0.3",
    "version": "4.5.1"
  },
  {
    "range": "<1.2.6",
    "version": "4.5.1"
  },
  {
    "range": "<2.2.3",
    "version": "4.5.1"
  },
  {
    "range": "<1.2.18 || >=1.3.0dev0,<1.3.0b3",
    "version": "4.5.1"
  },
  {
    "range": "<0.9.11",
    "version": "4.5.1"
  },
  {
    "range": "<0.26",
    "version": "4.5.1"
  },
  {
    "range": "<0.2.2.1",
    "version": "4.5.1"
  },
  {
    "range": ">=0.0.0a",
    "version": "4.5.1"
  },
  {
    "range": "<2.6.0",
    "version": "4.5.1"
  },
  {
    "range": "<2.20.0",
    "version": "4.5.1"
  },
  {
    "range": "<0.12.0",
    "version": "4.5.1"
  },
  {
    "range": "<1.0.0",
    "version": "4.5.1"
  },
  {
    "range": "<1.9.2",
    "version": "4.5.1"
  },
  {
    "range": "<1.6.6",
    "version": "4.5.1"
  },
  {
    "range": "<1.6.5",
    "version": "4.5.1"
  },
  {
    "range": ">=2.7.0dev0,<2.7.1 || >=2.6.0dev0,<2.6.7 || <2.5.11",
    "version": "4.5.1"
  },
  {
    "range": "<1.6.4",
    "version": "4.5.1"
  },
  {
    "range": "<1.5.4",
    "version": "4.5.1"
  },
  {
    "range": "<2.5.14 || >=2.6.0.dev0, <2.6.11 || >=2.7.0.dev0, <2.7.5",
    "version": "4.5.1"
  },
  {
    "range": "<2.5.12 || >=2.6.0.dev0, <2.6.9 || >=2.7.0.dev0, <2.7.3",
    "version": "4.5.1"
  },
  {
    "range": "<1.5.5",
    "version": "4.5.1"
  },
  {
    "range": "<=1.2.23.13",
    "version": "4.5.1"
  },
  {
    "range": "<3.2.2||>=4.1,<4.2.0b1",
    "version": "4.5.1"
  },
  {
    "range": ">=2014.1.0,<2014.1.10",
    "version": "4.5.1"
  },
  {
    "range": "<3.4",
    "version": "4.5.1"
  },
  {
    "range": "<1.7.0",
    "version": "4.5.1"
  },
  {
    "range": "<=0.97",
    "version": "4.5.1"
  },
  {
    "range": "<3.3.2",
    "version": "4.5.1"
  },
  {
    "range": "<3.1.1",
    "version": "4.5.1"
  },
  {
    "range": ">=2.3.0,<2.3.2||>=2.5.0,<2.5.2",
    "version": "4.5.1"
  },
  {
    "range": "<5.1.0",
    "version": "4.5.1"
  },
  {
    "range": "<0.7.30||>0.8.0,<0.8.3",
    "version": "4.5.1"
  },
  {
    "range": ">=0.0,<0.12.6",
    "version": "4.5.1"
  },
  {
    "range": "<2.4.0",
    "version": "4.5.1"
  },
  {
    "range": "<1.5.0",
    "version": "4.5.1"
  },
  {
    "range": "<4.3.8||>=5.0a1,<5.0.1",
    "version": "4.5.1"
  },
  {
    "range": ">=4.0a1,<4.3.12||>=5.0a1,<5.0.7",
    "version": "4.5.1"
  },
  {
    "range": "<4.3.12||>=5.0a1,<5.0.7",
    "version": "4.5.1"
  },
  {
    "range": ">=3.0.0,<=3.3.6",
    "version": "4.5.1"
  },
  {
    "range": "<0.4.4",
    "version": "4.5.1"
  },
  {
    "range": "<0.3.6",
    "version": "4.5.1"
  },
  {
    "range": "<0.9.7",
    "version": "4.5.1"
  },
  {
    "range": "<2.8",
    "version": "4.5.1"
  },
  {
    "range": "<0.1.14pre",
    "version": "4.5.1"
  },
  {
    "range": "<0.4.1",
    "version": "4.5.1"
  },
  {
    "range": ">=5.0alpha,<=5.1a1||<=4.3.9",
    "version": "4.5.1"
  },
  {
    "range": ">5.0a,<5.0rc2||<4.3.7",
    "version": "4.5.1"
  },
  {
    "range": "<5.0a",
    "version": "4.5.1"
  },
  {
    "range": ">=5.0alpha,<=5.1a1",
    "version": "4.5.1"
  },
  {
    "range": "<=1.24.1",
    "version": "4.5.1"
  },
  {
    "range": "<1.23",
    "version": "4.5.1"
  },
  {
    "range": "==1.24.1 || ==1.24.2",
    "version": "4.5.1"
  },
  {
    "range": ">=1.17,<1.18.1",
    "version": "4.5.1"
  },
  {
    "range": "<1.1.0",
    "version": "4.5.1"
  },
  {
    "range": "<0.16.1",
    "version": "4.5.1"
  },
  {
    "range": "<5.7.2",
    "version": "4.5.1"
  },
  {
    "range": "<5.7.1",
    "version": "4.5.1"
  },
  {
    "range": "<4.0.5",
    "version": "4.5.1"
  },
  {
    "range": ">=4.0.0,<4.0.5",
    "version": "4.5.1"
  },
  {
    "range": "<5.7.6",
    "version": "4.5.1"
  },
  {
    "range": "<4.2.2",
    "version": "4.5.1"
  },
  {
    "range": "<1.2.0",
    "version": "4.5.1"
  },
  {
    "range": "<1.8.1",
    "version": "4.5.1"
  },
  {
    "range": "<1.8.2||>=2.0.0,<2.3.1",
    "version": "4.5.1"
  },
  {
    "range": "<0.4.0",
    "version": "4.5.1"
  },
  {
    "range": "<1.11.19 || >=2.0a1, <2.0.11 || >=2.1a1, <2.1.6 || >=2.2a1, <2.2b1",
    "version": "4.5.1"
  },
  {
    "range": ">=1.4,<1.4.6||>=1.5,<1.5.2",
    "version": "4.5.1"
  },
  {
    "range": ">=1.11alpha,<1.11.5||>=1.9.0alpha,<1.10.8",
    "version": "4.5.1"
  },
  {
    "range": ">=1.9a,<1.9.2",
    "version": "4.5.1"
  },
  {
    "range": ">=2.1.0.dev0, <2.1.2",
    "version": "4.5.1"
  },
  {
    "range": ">=1.8.0a,<1.8.10||>=1.9.0a,<1.9.3",
    "version": "4.5.1"
  },
  {
    "range": ">=1.11alpha,<1.11||>=1.10.0alpha,<1.10.7||>=1.9.0alpha,<1.9.13||<1.8.18",
    "version": "4.5.1"
  },
  {
    "range": "<1.11.18 || >=2.0.0.dev0, <2.0.10 || >=2.1.0.dev0, <2.1.5",
    "version": "4.5.1"
  },
  {
    "range": ">=1.8.0a,<1.8.4||>=1.7.0a,<1.7.10||>=1.4.0a,<1.4.22",
    "version": "4.5.1"
  },
  {
    "range": ">=1.11.0 <1.11.23 || >=2.1.0 <2.1.11 || >=2.2.0 <2.2.4",
    "version": "4.5.1"
  },
  {
    "range": ">=1.4,<1.4.11||>=1.5,<1.5.6||>=1.6,<1.6.3",
    "version": "4.5.1"
  },
  {
    "range": ">=1.10.0alpha,<1.10.3||>=1.9.0alpha,<1.9.11||<1.8.16",
    "version": "4.5.1"
  },
  {
    "range": ">=1.4,<1.4.13||>=1.5,<1.5.8||>=1.6,<1.6.5||>=1.7,<1.7a4",
    "version": "4.5.1"
  },
  {
    "range": "<1.7.11||>=1.8.0a,<1.8.7||>=1.9a,<1.9rc2",
    "version": "4.5.1"
  },
  {
    "range": ">=2.0a1, <2.1.9 || >=2.2a1, <2.2.2",
    "version": "4.5.1"
  },
  {
    "range": ">=1.9.0alpha,<1.9.10||<1.8.15",
    "version": "4.5.1"
  },
  {
    "range": ">=1.4,<1.4.7||>=1.5,<1.5.3",
    "version": "4.5.1"
  },
  {
    "range": "<1.11.21 || >=2.0a1, <2.1.9 || >=2.2a1, <2.2.2",
    "version": "4.5.1"
  },
  {
    "range": ">=1.4,<1.4.8||>=1.5,<1.5.4",
    "version": "4.5.1"
  },
  {
    "range": ">=1.8.0a,<1.8.3||>=1.7.0a,<1.7.9||>=1.4.0a,<1.4.21",
    "version": "4.5.1"
  },
  {
    "range": "<1.8.14||>=1.9.0alpha,<1.9.8||>=1.10.0alpha,<1.10rc1",
    "version": "4.5.1"
  },
  {
    "range": ">=1.5,<1.5.2",
    "version": "4.5.1"
  },
  {
    "range": "<4.2.5",
    "version": "4.5.1"
  },
  {
    "range": "<3.3.5",
    "version": "4.5.1"
  },
  {
    "range": "<0.1.14",
    "version": "4.5.1"
  },
  {
    "range": ">0.11.0,<0.11.7 || >0.12.0,<0.12.6",
    "version": "4.5.1"
  },
  {
    "range": "<1.1",
    "version": "4.5.1"
  },
  {
    "range": "<8.0.14",
    "version": "4.5.1"
  },
  {
    "range": ">=1.0,<=1.9.0",
    "version": "4.5.1"
  },
  {
    "range": ">=5.0.0, <5.0.1",
    "version": "4.5.1"
  },
  {
    "range": "<0.9.9",
    "version": "4.5.1"
  }
]
